clip1.wav|Gneis er en metamorf bergart,|Gneis er en metamorf bergart, 
clip2.wav|det vil si at den er omdannet fra en annen eller flere andre bergarter, etter å ha vært utsatt for stort trykk og varme.|det vil si at den er omdannet fra en annen eller flere andre bergarter, etter å ha vært utsatt for stort trykk og varme. 
clip3.wav|Gneis inneholder derfor de samme mineralene som de bergartene den er dannet av.|Gneis inneholder derfor de samme mineralene som de bergartene den er dannet av. 
clip4.wav|På grunn av at den har vært utsatt for trykk og varme har den fått endret sin struktur,|På grunn av at den har vært utsatt for trykk og varme har den fått endret sin struktur, 
clip5.wav|den har blitt lagdelt og fått et bølget og flammet utseende.|den har blitt lagdelt og fått et bølget og flammet utseende. 
clip6.wav|Lagdelingen og det bølgete utseendet kommer av at de opprinnelige bergartene i ulik grad er blitt blandet.|Lagdelingen og det bølgete utseendet kommer av at de opprinnelige bergartene i ulik grad er blitt blandet. 
clip7.wav|Gneis er en vanlig bergart flere steder i Norge.|Gneis er en vanlig bergart flere steder i Norge. 
clip8.wav|Det er mange kvaliteter og typer gneis.|Det er mange kvaliteter og typer gneis. 
clip9.wav|De har ulike navn, avhengig av innholdet (mengde) av opprinnelige bergarter.|De har ulike navn, avhengig av innholdet (mengde) av opprinnelige bergarter. 
clip10.wav|En vulkan er en geologisk formasjon, som dannes når magma nærmer seg overflaten, danner et magmakammer, og til slutt bryter gjennom overflaten.|En vulkan er en geologisk formasjon, som dannes når magma nærmer seg overflaten, danner et magmakammer, og til slutt bryter gjennom overflaten. 
clip11.wav|Magmaen kan så flyte nedover fjellsiden som lava – eller sendes ut som aske, faste eller delvis smeltede steinblokker, og/eller pyroklastiske strømmer.|Magmaen kan så flyte nedover fjellsiden som lava – eller sendes ut som aske, faste eller delvis smeltede steinblokker, og/eller pyroklastiske strømmer. 
clip12.wav|På jorda dannes vulkaner ofte ved kontinentalplategrensene der platene dras fra hverandre eller møter hverandre.|På jorda dannes vulkaner ofte ved kontinentalplategrensene der platene dras fra hverandre eller møter hverandre. 
clip13.wav|En midthavsrygg, for eksempel Den midtatlantiske ryggen, kan ha vulkaner som skapes når de tektoniske platene dras fra hverandre.|En midthavsrygg, for eksempel Den midtatlantiske ryggen, kan ha vulkaner som skapes når de tektoniske platene dras fra hverandre. 
clip14.wav|Ildringen i Stillehavet er et eksempel på vulkaner skapt i subduksjonssoner når plater møtes.|Ildringen i Stillehavet er et eksempel på vulkaner skapt i subduksjonssoner når plater møtes. 
clip15.wav|Vulkaner kan også dannes der jordskorpa blir strukket eller tynnet ut, slik som Riftdalen i Afrika og Rio Grande-riften i Nord-Amerika.|Vulkaner kan også dannes der jordskorpa blir strukket eller tynnet ut, slik som Riftdalen i Afrika og Rio Grande-riften i Nord-Amerika. 
clip16.wav|Vulkaner dannes vanligvis ikke der to tektoniske plater glir på langs av hverandre.|Vulkaner dannes vanligvis ikke der to tektoniske plater glir på langs av hverandre. 
clip17.wav|Utenom plategrensene, forekommer vulkaner som antas å skyldes varmepunkter i jordskorpen.|Utenom plategrensene, forekommer vulkaner som antas å skyldes varmepunkter i jordskorpen. 
clip18.wav|Varmepunkter ligger vanligvis ikke på ryggene til jordskorpeplatene, men over mantelplummer, der konveksjon i jordas mantel danner søyler med varmt stoff som stiger til de møter jordskorpen, som har en tendens til å være tynnere enn andre steder på Jorda.|Varmepunkter ligger vanligvis ikke på ryggene til jordskorpeplatene, men over mantelplummer, der konveksjon i jordas mantel danner søyler med varmt stoff som stiger til de møter jordskorpen, som har en tendens til å være tynnere enn andre steder på Jorda. 
clip19.wav|Temperaturen i plummen får skorpen til å smelte og danne kanaler der magmaen kan trenge gjennom.|Temperaturen i plummen får skorpen til å smelte og danne kanaler der magmaen kan trenge gjennom. 
clip20.wav|Siden jordskorpeplatene flytter seg mens mantelplummane er stasjonære, vil hver vulkan etter hvert bli inaktiv og en ny vulkan dannes der jordskorpen flytter seg over søylestrømmen.|Siden jordskorpeplatene flytter seg mens mantelplummane er stasjonære, vil hver vulkan etter hvert bli inaktiv og en ny vulkan dannes der jordskorpen flytter seg over søylestrømmen. 
clip21.wav|Det foreligger teorier om at øyene Hawaii har blitt dannet på denne måten.|Det foreligger teorier om at øyene Hawaii har blitt dannet på denne måten. 
clip22.wav|Fugler eller nåtidsfugler er tobeinte, varmblodige virveldyr som nedstammer fra de skjellkledte, øglelignende sauropsidene.|Fugler eller nåtidsfugler er tobeinte, varmblodige virveldyr som nedstammer fra de skjellkledte, øglelignende sauropsidene. 
clip23.wav|Det største særtrekket hos fugler er at kroppen er tilnærmet fullstendig dekket av fjær (fjærdrakt), noe man ellers ikke finner hos noen andre grupper med dyr.|Det største særtrekket hos fugler er at kroppen er tilnærmet fullstendig dekket av fjær (fjærdrakt), noe man ellers ikke finner hos noen andre grupper med dyr. 
clip24.wav|Ellers karakteriseres fugler av et hode der munnen former et nebb av hornstoff, forlemmer som er omdannet til vinger, en kropp som ender i en gump og en mer eller mindre prominent stjert, og et skjelett med en forsterket hul konstruksjon, som reduserer vekten betraktelig i forhold til størrelsen.|Ellers karakteriseres fugler av et hode der munnen former et nebb av hornstoff, forlemmer som er omdannet til vinger, en kropp som ender i en gump og en mer eller mindre prominent stjert, og et skjelett med en forsterket hul konstruksjon, som reduserer vekten betraktelig i forhold til størrelsen. 
clip25.wav|Den siste resten av skjellkledningen som dekket fuglenes fjerne forfedre, finnes i dag kun på føttene, men skjellene har hos noen arter i stor grad blitt erstattet med fjær.|Den siste resten av skjellkledningen som dekket fuglenes fjerne forfedre, finnes i dag kun på føttene, men skjellene har hos noen arter i stor grad blitt erstattet med fjær. 
clip26.wav|En av fuglenes mest framtredende egenskaper er at det lette skjelettet og de fjærkledde forlemmene (vingene) gjør de fleste artene i stand til sveve (fly) i luften.|En av fuglenes mest framtredende egenskaper er at det lette skjelettet og de fjærkledde forlemmene (vingene) gjør de fleste artene i stand til sveve (fly) i luften. 
clip27.wav|Alle nålevende arter antas å stamme fra en felles vegetarisk stamform som mistet tennene sine for omtrent 116 millioner år siden.|Alle nålevende arter antas å stamme fra en felles vegetarisk stamform som mistet tennene sine for omtrent 116 millioner år siden. 
clip28.wav|Fotosyntesen er en kjemisk prosess som bruker energi fra sollys til å omdanne karbondioksid til organiske forbindelser som for eksempel karbohydrater.|Fotosyntesen er en kjemisk prosess som bruker energi fra sollys til å omdanne karbondioksid til organiske forbindelser som for eksempel karbohydrater. 
clip29.wav|Planter, alger og blågrønnbakterier kan fotosyntetisere.|Planter, alger og blågrønnbakterier kan fotosyntetisere. 
clip30.wav|Hos disse organismene bruker fotosyntesen vann og karbondioksid, og avgir oksygen som et avfallsprodukt.|Hos disse organismene bruker fotosyntesen vann og karbondioksid, og avgir oksygen som et avfallsprodukt. 
clip31.wav|Det finnes enkelte andre bakteriearter som ikke avgir oksygen i fotosyntesen (anoksygenisk fotosyntese). Samtidig er nesten alle organismer avhengige av fotosyntesen som en kilde til mat og energi, samt karbonet i organiske forbindelser.|Det finnes enkelte andre bakteriearter som ikke avgir oksygen i fotosyntesen (anoksygenisk fotosyntese). Samtidig er nesten alle organismer avhengige av fotosyntesen som en kilde til mat og energi, samt karbonet i organiske forbindelser. 
clip32.wav|En organisme som kan utføre fotosyntese kalles fotoautotrof, i motsetning til kjemotrofe organismer, som er avhengige av å oksidere kjemiske forbindelser som energikilde.|En organisme som kan utføre fotosyntese kalles fotoautotrof, i motsetning til kjemotrofe organismer, som er avhengige av å oksidere kjemiske forbindelser som energikilde. 
clip33.wav|Det finnes også enkelte organismer som bruker organiske forbindelser istedenfor karbondioksid som karbonkilde i fotosyntesen. Disse sies å være fotohetrotrofe.|Det finnes også enkelte organismer som bruker organiske forbindelser istedenfor karbondioksid som karbonkilde i fotosyntesen. Disse sies å være fotohetrotrofe. 
clip34.wav|Det finnes mange varianter av fotosyntetiske prosesser, som varierer mellom ulike arter.|Det finnes mange varianter av fotosyntetiske prosesser, som varierer mellom ulike arter. 
clip35.wav|Likevel er det en del elementer som går igjen.|Likevel er det en del elementer som går igjen. 
clip36.wav|Lys absorberes i klorofyllholdige proteiner, fotosyntetiske reaksjonsentere.|Lys absorberes i klorofyllholdige proteiner, fotosyntetiske reaksjonsentere. 
clip37.wav|Hos planter finner man disse i kloroplasten, og hos bakterier finner man disse i cellemembranen.|Hos planter finner man disse i kloroplasten, og hos bakterier finner man disse i cellemembranen. 
clip38.wav|Lysenergien blir brukt til å redusere vann, og utnytte den frigjorte energien til å syntetisere ulike organiske forbindelser, som for eksempel adenosintrifosfat (fotofosforylering) og glyseraldehyd 3-fosfat (calvinsyklus).|Lysenergien blir brukt til å redusere vann, og utnytte den frigjorte energien til å syntetisere ulike organiske forbindelser, som for eksempel adenosintrifosfat (fotofosforylering) og glyseraldehyd 3-fosfat (calvinsyklus). 
clip39.wav|Fotosyntesen i planter, alger og blågrønnbakterier varierer noe, men det er mange elementer som går igjen.|Fotosyntesen i planter, alger og blågrønnbakterier varierer noe, men det er mange elementer som går igjen. 
clip40.wav|Reaksjonen kan deles inn i to deler, den lysavhengige reaksjonen og den lysuavhengige reaksjonen (mørkereaksjonen).|Reaksjonen kan deles inn i to deler, den lysavhengige reaksjonen og den lysuavhengige reaksjonen (mørkereaksjonen). 
clip41.wav|Lysreaksjonen er avhengig av lys, mens mørkereaksjonen kan foregå i fravær av lys.|Lysreaksjonen er avhengig av lys, mens mørkereaksjonen kan foregå i fravær av lys. 
clip42.wav|Et atom er en submikroskopisk struktur som ikke kan deles i mindre elementer via kjemiske reaksjoner og beholde sine kjemiske egenskaper.|Et atom er en submikroskopisk struktur som ikke kan deles i mindre elementer via kjemiske reaksjoner og beholde sine kjemiske egenskaper. 
clip43.wav|Atomer er bestanddeler i molekyler (kjemiske stoffer).|Atomer er bestanddeler i molekyler (kjemiske stoffer). 
clip44.wav|Ordet atom kommer fra det greske ordet atomos som betyr udelelig.|Ordet atom kommer fra det greske ordet atomos som betyr udelelig. 
clip45.wav|Et atoms radius er i området 31 (helium) til 215 (radium) picometer.|Et atoms radius er i området 31 (helium) til 215 (radium) picometer. 
clip46.wav|Tidligere forestillinger om stoffers fysiske struktur var basert på at fysisk deling i stadig mindre biter ville resultere i atomet som minste og udelelige bestanddel.|Tidligere forestillinger om stoffers fysiske struktur var basert på at fysisk deling i stadig mindre biter ville resultere i atomet som minste og udelelige bestanddel. 
clip47.wav|I 1913 presenterte Bohr sin atommodell som deler atomet opp i tre underliggende elementærpartikler: elektroner, som har negativ elektrisk ladning og er minst av de tre; protoner, som har positiv ladning og er omtrent 1836 ganger tyngre enn elektronet; og nøytroner, som er elektrisk nøytrale og er omtrent 1839 ganger tyngre enn elektronet.|I 1913 presenterte Bohr sin atommodell som deler atomet opp i tre underliggende elementærpartikler: elektroner, som har negativ elektrisk ladning og er minst av de tre; protoner, som har positiv ladning og er omtrent 1836 ganger tyngre enn elektronet; og nøytroner, som er elektrisk nøytrale og er omtrent 1839 ganger tyngre enn elektronet. 
clip48.wav|Kvantemekanikken beskriver nå materiens bølge-partikkel-dualitet og er det matematiske rammeverket for standardmodellen som beskriver krefter og partikler på subatomært nivå.|Kvantemekanikken beskriver nå materiens bølge-partikkel-dualitet og er det matematiske rammeverket for standardmodellen som beskriver krefter og partikler på subatomært nivå. 
clip49.wav|Elementærpartiklene deles nå videre opp i flere typer partikler f.eks kvarker og kraftvirkning mellom partikler f.eks gluoner.|Elementærpartiklene deles nå videre opp i flere typer partikler f.eks kvarker og kraftvirkning mellom partikler f.eks gluoner. 
clip50.wav|Atomære og subatomære partikler kan ikke sees som distinkt avgrensede fysiske objekter, men som en romlig fordeling som angir sannsynligheten for partikkelens energi, utstrekning og posisjon til forskjellig tid.|Atomære og subatomære partikler kan ikke sees som distinkt avgrensede fysiske objekter, men som en romlig fordeling som angir sannsynligheten for partikkelens energi, utstrekning og posisjon til forskjellig tid. 
clip51.wav|Partiklenes egenskaper er ikke lenger uavhengige, men avhenger av hvilke andre partikler de opptrer i kombinasjon med. Dette betegnes som resonanser eller interaksjoner.|Partiklenes egenskaper er ikke lenger uavhengige, men avhenger av hvilke andre partikler de opptrer i kombinasjon med. Dette betegnes som resonanser eller interaksjoner. 
clip52.wav|Innstilling fra utenriks- og forsvarskomiteen om Samtykke til godkjennelse av protokoll av 17. juni 2022 om endring av Marrakesh-avtalen om opprettelse av Verdens handelsorganisasjon|Innstilling fra utenriks- og forsvarskomiteen om Samtykke til godkjennelse av protokoll av 17. juni 2022 om endring av Marrakesh-avtalen om opprettelse av Verdens handelsorganisasjon 
clip53.wav|Innstilling fra utenriks- og forsvarskomiteen om Representantforslag fra stortingsrepresentantene Rasmus Hansson, Une Bastholm og Lan Marie Nguyen Berg om anerkjennelse av Den islamske statens angrep på jesidiene som et folkemord og norsk støtte til rehabilitering av de overlevende ofrene|Innstilling fra utenriks- og forsvarskomiteen om Representantforslag fra stortingsrepresentantene Rasmus Hansson, Une Bastholm og Lan Marie Nguyen Berg om anerkjennelse av Den islamske statens angrep på jesidiene som et folkemord og norsk støtte til rehabilitering av de overlevende ofrene 
clip54.wav|WTOs ministerkonferanse i Genève vedtok 17. juni 2022 en protokoll om endring av Marrakesh-avtalen om opprettelse av Verdens Handelsorganisasjon.|WTOs ministerkonferanse i Genève vedtok 17. juni 2022 en protokoll om endring av Marrakesh-avtalen om opprettelse av Verdens Handelsorganisasjon. 
clip55.wav|Protokollen fastsetter at den fremforhandlede avtalen om fiskerisubsidier skal innsettes i WTO-avtalens vedlegg 1A.|Protokollen fastsetter at den fremforhandlede avtalen om fiskerisubsidier skal innsettes i WTO-avtalens vedlegg 1A. 
clip56.wav|Protokollen ble samtidig åpnet for tilslutning fra WTO-medlemmene. I henhold til WTO-avtalens artikkel X nr. 3 må protokollen godkjennes av to tredjedeler av WTOs medlemmer for at fiskerisubsidieavtalen skal tre i kraft.|Protokollen ble samtidig åpnet for tilslutning fra WTO-medlemmene. I henhold til WTO-avtalens artikkel X nr. 3 må protokollen godkjennes av to tredjedeler av WTOs medlemmer for at fiskerisubsidieavtalen skal tre i kraft. 
clip57.wav|Hovedformålet med fiskerisubsidieavtalen er å regulere noen former for skadelige subsidier innenfor fiskerisektoren.|Hovedformålet med fiskerisubsidieavtalen er å regulere noen former for skadelige subsidier innenfor fiskerisektoren. 
clip58.wav|Avtalen skal gjennomføre FNs bærekraftsmål 14.6 som fastslår at man innen 2020 skal forby visse former for subsidier som bidrar til overkapasitet og overfiske, samt avskaffe subsidier som bidrar til ulovlig, urapportert og uregulert (UUU) fiske.|Avtalen skal gjennomføre FNs bærekraftsmål 14.6 som fastslår at man innen 2020 skal forby visse former for subsidier som bidrar til overkapasitet og overfiske, samt avskaffe subsidier som bidrar til ulovlig, urapportert og uregulert (UUU) fiske. 
clip59.wav|AFS regulerer bare deler av bærekraftsmål 14.6 ettersom den kun omfatter subsidier som bidrar til UUU-fiske, samt subsidier knyttet til fiske eller fiskerirelatert virksomhet på overfisket bestand.|AFS regulerer bare deler av bærekraftsmål 14.6 ettersom den kun omfatter subsidier som bidrar til UUU-fiske, samt subsidier knyttet til fiske eller fiskerirelatert virksomhet på overfisket bestand. 
clip60.wav|Det følger av fortalen at det skal forhandles videre om å inkludere forbud mot visse former for subsidier som bidrar til overkapasitet og overfiske.|Det følger av fortalen at det skal forhandles videre om å inkludere forbud mot visse former for subsidier som bidrar til overkapasitet og overfiske. 
clip61.wav|Dersom slike forbud ikke inkluderes i avtalen vil den automatisk opphøre innen fire år etter avtalens ikrafttredelse dersom ikke WTO medlemmene bestemmer annet.|Dersom slike forbud ikke inkluderes i avtalen vil den automatisk opphøre innen fire år etter avtalens ikrafttredelse dersom ikke WTO medlemmene bestemmer annet. 
clip62.wav|En rask godkjenning av protokollen for fiskerisubsidieavtalen, av så mange WTO-medlemmer som mulig, er viktig for å anerkjenne enigheten som har kommet i stand for arbeidet mot UUU-fiske og fiske på overfisket bestand.|En rask godkjenning av protokollen for fiskerisubsidieavtalen, av så mange WTO-medlemmer som mulig, er viktig for å anerkjenne enigheten som har kommet i stand for arbeidet mot UUU-fiske og fiske på overfisket bestand. 
clip63.wav|Det er også viktig for å holde presset oppe i WTO for å sluttføre forhandlingene om de utstående områdene så raskt som mulig. Et endret regelverk og reduserte fiskerisubsidier vil bidra til å begrense fiskerier som i dag ikke er bærekraftige.|Det er også viktig for å holde presset oppe i WTO for å sluttføre forhandlingene om de utstående områdene så raskt som mulig. Et endret regelverk og reduserte fiskerisubsidier vil bidra til å begrense fiskerier som i dag ikke er bærekraftige. 
clip64.wav|Implementering av WTO-avtalen om fiskerisubsidier vil nødvendiggjøre endringer i samtlige subsidieordninger som er gjeldende for norsk fiskerinæring.|Implementering av WTO-avtalen om fiskerisubsidier vil nødvendiggjøre endringer i samtlige subsidieordninger som er gjeldende for norsk fiskerinæring. 
clip65.wav|Disse endringene vil gi nye oppgaver for de relevante forvaltningsmyndighetene med sikte på kontroll og håndhevelse av bestemmelsene.|Disse endringene vil gi nye oppgaver for de relevante forvaltningsmyndighetene med sikte på kontroll og håndhevelse av bestemmelsene. 
clip66.wav|Siden gjennomføring av protokollen antas å være av særlig stor viktighet, er Stortingets samtykke til godkjennelse nødvendig i medhold av Grl. § 26 annet ledd.|Siden gjennomføring av protokollen antas å være av særlig stor viktighet, er Stortingets samtykke til godkjennelse nødvendig i medhold av Grl. § 26 annet ledd. 
clip67.wav|Protokollen om endring av WTO-avtalen og dens vedlegg (samt avtalen om fiskerisubsidier) i engelsk originaltekstversjon med oversettelse til norsk følger som trykt vedlegg til proposisjonen.|Protokollen om endring av WTO-avtalen og dens vedlegg (samt avtalen om fiskerisubsidier) i engelsk originaltekstversjon med oversettelse til norsk følger som trykt vedlegg til proposisjonen. 
clip68.wav|Vedleggene er også tilgjengelige elektronisk på http://www.regjeringen.no.|Vedleggene er også tilgjengelige elektronisk på http://www.regjeringen.no. 
clip69.wav|Jesidier er medlemmer av et religionssamfunn med utbredelse i kurdiske områder i Irak, Iran, Tyrkia, Syria, Armenia og Georgia, i nyere tid også i Europa, med tyngdepunkt i Tyskland.|Jesidier er medlemmer av et religionssamfunn med utbredelse i kurdiske områder i Irak, Iran, Tyrkia, Syria, Armenia og Georgia, i nyere tid også i Europa, med tyngdepunkt i Tyskland. 
clip70.wav|Antallet jesidier er usikkert, men lå i 2023 trolig på minst 500 000, selv om det også opereres med høyere tall.|Antallet jesidier er usikkert, men lå i 2023 trolig på minst 500 000, selv om det også opereres med høyere tall. 
clip71.wav|Den 3. august 2014 gikk Den islamske staten (IS) til angrep på jesidiene i Sinjar-området nord i Irak. Tusenvis ble tatt til fange eller drept, og nærmere hundre tusen mennesker flyktet til Sinjar-fjellet.|Den 3. august 2014 gikk Den islamske staten (IS) til angrep på jesidiene i Sinjar-området nord i Irak. Tusenvis ble tatt til fange eller drept, og nærmere hundre tusen mennesker flyktet til Sinjar-fjellet. 
clip72.wav|FN-organisasjonen UNITAD anser angrepet på jesidiene som et folkemord.|FN-organisasjonen UNITAD anser angrepet på jesidiene som et folkemord. 
clip73.wav|Tusenvis av mennesker ble henrettet og mer enn 6 000 kvinner ble fanget og gjort til sexslaver. Hundrevis av barn ble tatt til fange og oppdratt til å hate sine familier. Mer enn 300 000 jesidier ble drevet på flukt.|Tusenvis av mennesker ble henrettet og mer enn 6 000 kvinner ble fanget og gjort til sexslaver. Hundrevis av barn ble tatt til fange og oppdratt til å hate sine familier. Mer enn 300 000 jesidier ble drevet på flukt. 
clip74.wav|De fleste flyktningene lever fortsatt i teltleirer i Irak, mens et mindretall har kunnet vende tilbake til Sinjar. De overlevende sliter med fysiske og psykiske skader.|De fleste flyktningene lever fortsatt i teltleirer i Irak, mens et mindretall har kunnet vende tilbake til Sinjar. De overlevende sliter med fysiske og psykiske skader. 
clip75.wav|Gjenreising etter kamphandlingene går sakte, og makten på Sinjar er delt mellom militære grupper med ulik lojalitet.|Gjenreising etter kamphandlingene går sakte, og makten på Sinjar er delt mellom militære grupper med ulik lojalitet. 
clip76.wav|I sin rapport til FNs sikkerhetsråd i mai 2021, slo UNITAD nok en gang fast at Den islamske statens angrep på jesidiene i Irak utgjør et folkemord, altså «handlinger som er begått i den hensikt å ødelegge helt, eller delvis, en nasjonal, etnisk, rasemessig eller religiøs gruppe som sådan».|I sin rapport til FNs sikkerhetsråd i mai 2021, slo UNITAD nok en gang fast at Den islamske statens angrep på jesidiene i Irak utgjør et folkemord, altså «handlinger som er begått i den hensikt å ødelegge helt, eller delvis, en nasjonal, etnisk, rasemessig eller religiøs gruppe som sådan». 
clip77.wav|Norge har ratifisert FNs folkemordkonvensjon, som krever at medlemsstatene iverksetter tiltak for å forhindre folkemord, i tillegg til å straffeforfølge dem som begår forbrytelsen.|Norge har ratifisert FNs folkemordkonvensjon, som krever at medlemsstatene iverksetter tiltak for å forhindre folkemord, i tillegg til å straffeforfølge dem som begår forbrytelsen. 
clip78.wav|Norge har derfor et ansvar for hjelpe de overlevende ofrene og gjøre det mulig for dem å gjenoppbygge sine liv og sine hjem, så vel som et ansvar for å identifisere og straffe dem som utfører folkemord.|Norge har derfor et ansvar for hjelpe de overlevende ofrene og gjøre det mulig for dem å gjenoppbygge sine liv og sine hjem, så vel som et ansvar for å identifisere og straffe dem som utfører folkemord. 
clip79.wav|Forslagsstillerne anerkjenner at jesidiene i Irak har vært, og er, utsatt for folkemord gjennom systematiske angrep fra Den islamske staten i perioden fra 3. august 2014 og fram til idag.|Forslagsstillerne anerkjenner at jesidiene i Irak har vært, og er, utsatt for folkemord gjennom systematiske angrep fra Den islamske staten i perioden fra 3. august 2014 og fram til idag. 
clip80.wav|Forslagsstillerne mener at Norge og andre land har en plikt til å gripe inn for å forhindre fullbyrdelsen av jihadistenes forsett.|Forslagsstillerne mener at Norge og andre land har en plikt til å gripe inn for å forhindre fullbyrdelsen av jihadistenes forsett. 
clip81.wav|Forslagsstillerne har i forbindelse med tidligere forslag til Stortinget om å bruke begrepet folkemord om Holodomor i Ukraina i 1932–1933, og om kinesiske myndigheters systematiske overgrep mot uigurer i Øst-Turkestan/Xinjiang, registrert at regjeringen ikke ønsker å bruke begrepet folkemord uten at det er forankret i dom i internasjonale domstoler/organer.|Forslagsstillerne har i forbindelse med tidligere forslag til Stortinget om å bruke begrepet folkemord om Holodomor i Ukraina i 1932–1933, og om kinesiske myndigheters systematiske overgrep mot uigurer i Øst-Turkestan/Xinjiang, registrert at regjeringen ikke ønsker å bruke begrepet folkemord uten at det er forankret i dom i internasjonale domstoler/organer. 
clip82.wav|Forslagsstillerne registrerer at nasjonalforsamlinger og regjeringer i mange land har en annen oppfatning enn den norske i dette spørsmålet. Disse mener, i likhet med forslagsstillerne, at folkemordbegrepet også bør brukes når det er politisk nødvendig, basert på politiske vurderinger.|Forslagsstillerne registrerer at nasjonalforsamlinger og regjeringer i mange land har en annen oppfatning enn den norske i dette spørsmålet. Disse mener, i likhet med forslagsstillerne, at folkemordbegrepet også bør brukes når det er politisk nødvendig, basert på politiske vurderinger. 
clip83.wav|Dersom begrepet folkemord bare brukes etter internasjonale juridiske prosesser vil det i praksis nesten aldri bli brukt, og det vil miste den politiske kraften begrepet er ment å ha.|Dersom begrepet folkemord bare brukes etter internasjonale juridiske prosesser vil det i praksis nesten aldri bli brukt, og det vil miste den politiske kraften begrepet er ment å ha. 
clip84.wav|Ekstremvær er et norsk uttrykk avledet av Meteorologisk institutts prosedyre for ekstremvarsler.|Ekstremvær er et norsk uttrykk avledet av Meteorologisk institutts prosedyre for ekstremvarsler. 
clip85.wav|Betegnelsen brukes ofte om selve værsystemet, for eksempel Ekstremværet Hilde. Lignende varsler utsendes i en del andre land.|Betegnelsen brukes ofte om selve værsystemet, for eksempel Ekstremværet Hilde. Lignende varsler utsendes i en del andre land. 
clip86.wav| Meteorologisk institutt utsender ekstremvarsler når været kan utgjøre en fare for liv og verdier dersom det ikke igangsettes forebyggende tiltak. Instituttets ekstremvarsler gis for: Sterk vind (storm); Store nedbørsmengder og/eller temperaturendringer med fare for skadeflom; Ekstremt stor snøskredfare i store områder; Stormflo (ekstremt høy vannstand langs deler av kysten)| Meteorologisk institutt utsender ekstremvarsler når været kan utgjøre en fare for liv og verdier dersom det ikke igangsettes forebyggende tiltak. Instituttets ekstremvarsler gis for: Sterk vind (storm); Store nedbørsmengder og/eller temperaturendringer med fare for skadeflom; Ekstremt stor snøskredfare i store områder; Stormflo (ekstremt høy vannstand langs deler av kysten) 
clip87.wav|Meteorologisk institutts varsel om ekstremvær går først til Hovedredningssentralen og Norges vassdrags- og energidirektorat.|Meteorologisk institutts varsel om ekstremvær går først til Hovedredningssentralen og Norges vassdrags- og energidirektorat. 
clip88.wav|Deretter til Justisdepartementet, fylkesmennene i de utsatte områdene, politiet, kommunale etater, riksdekkende radio/tv og NTB.|Deretter til Justisdepartementet, fylkesmennene i de utsatte områdene, politiet, kommunale etater, riksdekkende radio/tv og NTB. 
clip89.wav|Norge, offisielt Kongeriket Norge, er et nordisk, europeisk land og en selvstendig stat vest på Den skandinaviske halvøy.|Norge, offisielt Kongeriket Norge, er et nordisk, europeisk land og en selvstendig stat vest på Den skandinaviske halvøy. 
clip90.wav|Geografisk sett er landet langt og smalt, og på den langstrakte kysten mot Nord-Atlanteren befinner Norges vidkjente fjorder seg.|Geografisk sett er landet langt og smalt, og på den langstrakte kysten mot Nord-Atlanteren befinner Norges vidkjente fjorder seg. 
clip91.wav|Kongeriket Norge omfatter hovedlandet (fastlandet med tilliggende øyer innenfor grunnlinjen), Jan Mayen og Svalbard.|Kongeriket Norge omfatter hovedlandet (fastlandet med tilliggende øyer innenfor grunnlinjen), Jan Mayen og Svalbard. 
clip92.wav|Med disse to arktiske områdene omfatter Norge et landareal på 385 000 km² og har et innbyggerantall på cirka 5,5 millioner (2023).|Med disse to arktiske områdene omfatter Norge et landareal på 385 000 km² og har et innbyggerantall på cirka 5,5 millioner (2023). 
clip93.wav|Fastlands-Norge grenser i øst til Sverige, i nordøst til Finland og Russland.|Fastlands-Norge grenser i øst til Sverige, i nordøst til Finland og Russland. 
clip94.wav|Norge er et parlamentarisk demokrati og konstitusjonelt monarki, hvor Harald den femte siden 1991 er konge og statsoverhode, og Jonas Gahr Støre (Ap) siden 2021 er statsminister.|Norge er et parlamentarisk demokrati og konstitusjonelt monarki, hvor Harald den femte siden 1991 er konge og statsoverhode, og Jonas Gahr Støre (Ap) siden 2021 er statsminister. 
clip95.wav|Norge er en enhetsstat, med to administrative nivå under staten: fylker og kommuner.|Norge er en enhetsstat, med to administrative nivå under staten: fylker og kommuner. 
clip96.wav|Den samiske delen av befolkningen har, gjennom Sametinget og Finnmarksloven, til en viss grad selvstyre og innflytelse over tradisjonelt samiske områder.|Den samiske delen av befolkningen har, gjennom Sametinget og Finnmarksloven, til en viss grad selvstyre og innflytelse over tradisjonelt samiske områder. 
clip97.wav|Selv om Norge har avvist medlemskap i Den europeiske union gjennom to folkeavstemninger, har Norge gjennom EØS-avtalen tette bånd til unionen, og gjennom NATO med USA.|Selv om Norge har avvist medlemskap i Den europeiske union gjennom to folkeavstemninger, har Norge gjennom EØS-avtalen tette bånd til unionen, og gjennom NATO med USA. 
clip98.wav|Norge er en betydelig bidragsyter i De forente nasjoner (FN), og har deltatt med soldater i flere utenlandsoperasjoner med mandat fra FN.|Norge er en betydelig bidragsyter i De forente nasjoner (FN), og har deltatt med soldater i flere utenlandsoperasjoner med mandat fra FN. 
clip99.wav|Norge er blant statene som har vært med fra grunnleggelsen av FN, NATO, Europarådet, OSSE og Nordisk råd, og er i tillegg til disse medlem av EØS, Verdens handelsorganisasjon, Organisasjonen for økonomisk samarbeid og utvikling og er en del av Schengen-området.|Norge er blant statene som har vært med fra grunnleggelsen av FN, NATO, Europarådet, OSSE og Nordisk råd, og er i tillegg til disse medlem av EØS, Verdens handelsorganisasjon, Organisasjonen for økonomisk samarbeid og utvikling og er en del av Schengen-området. 
clip100.wav|Norge er rikt på mange naturressurser som olje, gass, mineraler, tømmer, sjømat, ferskvann og vannkraft.|Norge er rikt på mange naturressurser som olje, gass, mineraler, tømmer, sjømat, ferskvann og vannkraft. 
clip101.wav|Dinosaurer er en gruppe krypdyr som dominerte landjorden i de to mesozoiske periodene jura og kritt, fra omtrent 200 til 66 millioner år før vår tid.|Dinosaurer er en gruppe krypdyr som dominerte landjorden i de to mesozoiske periodene jura og kritt, fra omtrent 200 til 66 millioner år før vår tid. 
clip102.wav|I trias, den første perioden av mesozoikum og da dinosaurene først oppstod, var det dyregruppen kalt Pseudosuchia som dominerte.|I trias, den første perioden av mesozoikum og da dinosaurene først oppstod, var det dyregruppen kalt Pseudosuchia som dominerte. 
clip103.wav|Disse tilhørte samme slektslinje som krokodillene. Det var først etter at dinosaurene kom gjennom den mindre masseutryddelsen kalt Carnian-Norian-hendelsen for 228 millioner år siden, og deretter den større trias-jura-masseutryddelsen, at de ble de dominerende landdyr.|Disse tilhørte samme slektslinje som krokodillene. Det var først etter at dinosaurene kom gjennom den mindre masseutryddelsen kalt Carnian-Norian-hendelsen for 228 millioner år siden, og deretter den større trias-jura-masseutryddelsen, at de ble de dominerende landdyr. 
clip104.wav|Gruppen, som inkluderte de største landdyrene som noensinne har eksistert, ble med unntak av fuglene utryddet under den store kritt/tertiær-masseutdøingen.|Gruppen, som inkluderte de største landdyrene som noensinne har eksistert, ble med unntak av fuglene utryddet under den store kritt/tertiær-masseutdøingen. 
clip105.wav|Til tross for navnet er ikke dinosaurene øgler, men en undergruppe av Archosauria (sammen med blant annet krokodiller og flygeøgler). |Til tross for navnet er ikke dinosaurene øgler, men en undergruppe av Archosauria (sammen med blant annet krokodiller og flygeøgler). 
clip106.wav|Dinosaurene omfatter to undergrupper, og dagens fugler regnes for å være små dinosaurer og direkte etterkommere av kjøttetende theropoder.|Dinosaurene omfatter to undergrupper, og dagens fugler regnes for å være små dinosaurer og direkte etterkommere av kjøttetende theropoder. 
clip107.wav|Betegnelsen dinosaurer har også vært brukt om andre utdødde krypdyr, som for eksempel svaneøgler og flygeøgler, men disse tilhører andre krypdyrgrupper.|Betegnelsen dinosaurer har også vært brukt om andre utdødde krypdyr, som for eksempel svaneøgler og flygeøgler, men disse tilhører andre krypdyrgrupper. 
clip108.wav|Kina, offisielt Folkerepublikken Kina, er det største landet i Øst-Asia og pr. 2023 verdens nest mest folkerike land etter India.|Kina, offisielt Folkerepublikken Kina, er det største landet i Øst-Asia og pr. 2023 verdens nest mest folkerike land etter India. 
clip109.wav|Kina hadde i september 2019 en befolkning på om lag 1 398 864 000 innbyggere.|Kina hadde i september 2019 en befolkning på om lag 1 398 864 000 innbyggere. 
clip110.wav|Det kan oppleves støy fra ventilasjonsanlegget.|Det kan oppleves støy fra ventilasjonsanlegget. 
clip111.wav|På den grå bryteren markert med “ventilasjon” kan dere slå av ventilasjonsanlegget under innspilling. Dette vil fjerne støy.|På den grå bryteren markert med “ventilasjon” kan dere slå av ventilasjonsanlegget under innspilling. Dette vil fjerne støy. 
clip112.wav|Landet har et landareal på 9 388 211 km², og grenser til 14 land: Mongolia, Russland, Nord-Korea, India, Nepal, Pakistan, Afghanistan, Tadsjikistan, Kirgisistan, Kasakhstan, Bhutan, Myanmar, Laos og Vietnam.|Landet har et landareal på 9 388 211 km², og grenser til 14 land: Mongolia, Russland, Nord-Korea, India, Nepal, Pakistan, Afghanistan, Tadsjikistan, Kirgisistan, Kasakhstan, Bhutan, Myanmar, Laos og Vietnam. 
clip113.wav|Kina er verdens eldste fortsatt eksisterende sivilisasjon.|Kina er verdens eldste fortsatt eksisterende sivilisasjon. 
clip114.wav|Landets historie kjennetegnes av gjentatte delinger og gjenforeninger mellom skiftende perioder av fred og krig, og voldelige dynastiske skifter.|Landets historie kjennetegnes av gjentatte delinger og gjenforeninger mellom skiftende perioder av fred og krig, og voldelige dynastiske skifter. 
clip115.wav|Makten var gjerne konsentrert i den kinesiske keiserens hender, men skiftet noen ganger til mektige embedsmenn og regionale krigsherrer.|Makten var gjerne konsentrert i den kinesiske keiserens hender, men skiftet noen ganger til mektige embedsmenn og regionale krigsherrer. 
clip116.wav|Landets territoriale utbredelse har variert i historien. I mange århundrer, særlig fra det 7. århundre til og med det 14. århundre, gjaldt Kina som verdens mest avanserte sivilisasjon og var Øst-Asias dominerende kulturelle sentrum.|Landets territoriale utbredelse har variert i historien. I mange århundrer, særlig fra det 7. århundre til og med det 14. århundre, gjaldt Kina som verdens mest avanserte sivilisasjon og var Øst-Asias dominerende kulturelle sentrum. 
clip117.wav|Drage eller drake er et skremmende, ofte krypdyrliknende fabeldyr kjent i mange varianter fra myter, eventyr og folketro over store deler av verden.|Drage eller drake er et skremmende, ofte krypdyrliknende fabeldyr kjent i mange varianter fra myter, eventyr og folketro over store deler av verden. 
clip118.wav|Dyret blir gjerne framstilt som et fantasifullt uhyre med kroppsdeler fra både varm- og kaldblodige dyr; en kinesisk drage kan tolkes som en kombinasjon av løve og slange, mens drager i europeisk litteratur, billedkunst, kjennetegn og symboler ofte har kropp omtrent som en øgle, hode med horn, skjegg og ildsprutende kjeft, og vinger som hos en flaggermus.|Dyret blir gjerne framstilt som et fantasifullt uhyre med kroppsdeler fra både varm- og kaldblodige dyr; en kinesisk drage kan tolkes som en kombinasjon av løve og slange, mens drager i europeisk litteratur, billedkunst, kjennetegn og symboler ofte har kropp omtrent som en øgle, hode med horn, skjegg og ildsprutende kjeft, og vinger som hos en flaggermus. 
clip119.wav|Drage kan ha flere betydninger som symbol. I våpenskjold og kunst fra middelalderen er det en dyrefigur med flere føtter, for eksempel i en bord på Bayeux-teppet.|Drage kan ha flere betydninger som symbol. I våpenskjold og kunst fra middelalderen er det en dyrefigur med flere føtter, for eksempel i en bord på Bayeux-teppet. 
clip120.wav|Drager er også vanlig i stavkirkeikonografien som uttrykk for det onde som bekjempes. I nyere fantasilitteratur er det omtalt mange drager med forskjellige utforminger og egenskaper.|Drager er også vanlig i stavkirkeikonografien som uttrykk for det onde som bekjempes. I nyere fantasilitteratur er det omtalt mange drager med forskjellige utforminger og egenskaper. 
clip121.wav|I overført betydning kan drage referere til en ondskapsfull person, som regel en eldre kvinne med skarp tunge.|I overført betydning kan drage referere til en ondskapsfull person, som regel en eldre kvinne med skarp tunge. 
clip122.wav|Det var en gang en mann som hadde tre sønner, Per og Pål og Espen Askeladd; men annet enn de tre sønnene hadde han ikke heller, for han var så fattig at han eide ikke nåla på kroppen, og derfor sa han titt og ofte til dem, at de fikk ut i verden og se å tjene sitt brød; hjemme hos ham ble det så ikke annet enn sveltihjel likevel.|Det var en gang en mann som hadde tre sønner, Per og Pål og Espen Askeladd; men annet enn de tre sønnene hadde han ikke heller, for han var så fattig at han eide ikke nåla på kroppen, og derfor sa han titt og ofte til dem, at de fikk ut i verden og se å tjene sitt brød; hjemme hos ham ble det så ikke annet enn sveltihjel likevel. 
clip123.wav|Et godt stykke borte fra stua hans lå kongsgården, og like utenfor vinduene til kongen hadde det vokset opp en eik, som var så stor og diger at den skygget for lyset i kongsgården; kongen hadde lovt ut mange, mange penger til den som kunne hugge ned eika; men ingen var god for det, for så fort en skåret en flis av eikeleggen, vokste det to ut isteden.|Et godt stykke borte fra stua hans lå kongsgården, og like utenfor vinduene til kongen hadde det vokset opp en eik, som var så stor og diger at den skygget for lyset i kongsgården; kongen hadde lovt ut mange, mange penger til den som kunne hugge ned eika; men ingen var god for det, for så fort en skåret en flis av eikeleggen, vokste det to ut isteden. 
clip124.wav|Så ville kongen også ha gravet en brønn, som skulle holde vann hele året; for alle grannene hans hadde brønn, men han hadde ingen, og det syntes kongen var skam.|Så ville kongen også ha gravet en brønn, som skulle holde vann hele året; for alle grannene hans hadde brønn, men han hadde ingen, og det syntes kongen var skam. 
clip125.wav|Til den som kunne grave en slik brønn at den holdt vann hele året rundt, hadde kongen lovt ut både penger og annet.|Til den som kunne grave en slik brønn at den holdt vann hele året rundt, hadde kongen lovt ut både penger og annet. 
clip126.wav|Men det var ingen som kunne få gjort det; for kongsgården lå høyt, høyt oppe på en bakke, aldri før hadde de gravet noen tommer, så kom de til harde berget.|Men det var ingen som kunne få gjort det; for kongsgården lå høyt, høyt oppe på en bakke, aldri før hadde de gravet noen tommer, så kom de til harde berget. 
clip127.wav|Men da nå kongen hadde fått i hodet at han ville ha gjort disse arbeidene, så lot han lyse opp på alle kirkebakker både vidt og bredt, at den som kunne hugge ned den store eika i kongsgården og skaffe ham en slik brønn at den holdt vann hele året rundt, han skulle få kongsdatteren og halve riket. Men da nå kongen hadde fått i hodet at han ville ha gjort disse arbeidene, så lot han lyse opp på alle kirkebakker både vidt og bredt, at den som kunne hugge ned den store eika i kongsgården og skaffe ham en slik brønn at den holdt vann hele året rundt, han skulle få kongsdatteren og halve riket. 
clip128.wav|Det var nok av dem som ville prøve seg, kan du vel vite, men alt de knartet og hugg, og alt de rotet og grov, så hjalp det ikke, eika ble tykkere og tykkere for hvert hugg, og berget ble ikke bløtere det heller.|Det var nok av dem som ville prøve seg, kan du vel vite, men alt de knartet og hugg, og alt de rotet og grov, så hjalp det ikke, eika ble tykkere og tykkere for hvert hugg, og berget ble ikke bløtere det heller. 
clip129.wav|Om en stund så ville de tre brødrene i veien og prøve seg også, og det var faren vel nøyd med, for vant de ikke kongsdatteren og halve riket, så kunne det da hende de fikk tjeneste ensteds hos en bra mann, tenkte faren, og mer ønsket ikke han; og da brødrene slo på det at de ville til kongsgården, sa faren ja på flygende flekken, og så la Per og Pål og Espen Askeladd av gårde.|Om en stund så ville de tre brødrene i veien og prøve seg også, og det var faren vel nøyd med, for vant de ikke kongsdatteren og halve riket, så kunne det da hende de fikk tjeneste ensteds hos en bra mann, tenkte faren, og mer ønsket ikke han; og da brødrene slo på det at de ville til kongsgården, sa faren ja på flygende flekken, og så la Per og Pål og Espen Askeladd av gårde. 
clip130.wav|Da de hadde gått et stykke, kom de til en granli, og like opp for den var en bratt hei; så hørte de noe som hugg og hugg oppe i heia.|Da de hadde gått et stykke, kom de til en granli, og like opp for den var en bratt hei; så hørte de noe som hugg og hugg oppe i heia. 
clip131.wav|«Jeg undres hva det er som hugger oppe i heia, jeg?» sa Espen Askeladd.|«Jeg undres hva det er som hugger oppe i heia, jeg?» sa Espen Askeladd. 
clip132.wav|«Du er nå støtt så klok med undringene dine du», sa han Per og han Pål; «det er da noe å undre seg over også, at det står en vedhugger og knarter oppi heia!»|«Du er nå støtt så klok med undringene dine du», sa han Per og han Pål; «det er da noe å undre seg over også, at det står en vedhugger og knarter oppi heia!» 
clip133.wav|«Jeg har nok moro av å se hva det er likevel jeg», sa Espen Askeladd, og dermed gikk han.|«Jeg har nok moro av å se hva det er likevel jeg», sa Espen Askeladd, og dermed gikk han. 
clip134.wav|«Å ja, er du slikt et barn, har du godt av å lære å gå med!» ropte brødrene hans etter ham, men han brydde seg ikke om det, han Espen; han la avsted oppover bakkene, dit han hørte det hugg, og da han kom der, så han det var en øks som sto og hugg og hugg på en furulegg.|«Å ja, er du slikt et barn, har du godt av å lære å gå med!» ropte brødrene hans etter ham, men han brydde seg ikke om det, han Espen; han la avsted oppover bakkene, dit han hørte det hugg, og da han kom der, så han det var en øks som sto og hugg og hugg på en furulegg. 
clip135.wav|«God dag?» sa Espen Askeladd; «står du her og hugger?»|«God dag?» sa Espen Askeladd; «står du her og hugger?» 
clip136.wav|«Ja nå har jeg stått her og hugget i mange lange tider og ventet på deg», svarte øksen.|«Ja nå har jeg stått her og hugget i mange lange tider og ventet på deg», svarte øksen. 
clip137.wav|«Ja ja, her er jeg», sa Espen, han tok øksen og slo den av skaftet og stappet både øksen og skaftet i skreppa.|«Ja ja, her er jeg», sa Espen, han tok øksen og slo den av skaftet og stappet både øksen og skaftet i skreppa. 
clip138.wav|Da han kom ned igjen til brødrene sine, ga de seg til å le og gjøre narr av ham. «Hva var det for noe rart du fikk se oppi heia da?» sa de.|Da han kom ned igjen til brødrene sine, ga de seg til å le og gjøre narr av ham. «Hva var det for noe rart du fikk se oppi heia da?» sa de. 
clip139.wav|«Å det var bare en øks vi hørte», sa Espen.|«Å det var bare en øks vi hørte», sa Espen. 
clip140.wav|Da de så hadde gått en stund igjen, kom de under en berghammer; oppi den hørte de noe hakket og grov.|Da de så hadde gått en stund igjen, kom de under en berghammer; oppi den hørte de noe hakket og grov. 
clip141.wav|«Jeg undres hva det er som hakker og graver oppunder denne berghammeren jeg?» sa Espen Askeladd.|«Jeg undres hva det er som hakker og graver oppunder denne berghammeren jeg?» sa Espen Askeladd. 
clip142.wav|«Du er nå så klok til å undre deg du», sa han Per og han Pål igjen; «har du aldri hørt fuglene hakke og pikke på trærne før?»|«Du er nå så klok til å undre deg du», sa han Per og han Pål igjen; «har du aldri hørt fuglene hakke og pikke på trærne før?» 
clip143.wav|«Ja, men jeg har nok moro av å se hva det er, likevel jeg», sa Espen, og alt de lo og gjorde narr av ham, så brydde han seg ikke om det, han la avsted opp imot berghammeren, og da han kom oppunder, så han det var et grev som sto og hakket og grov.|«Ja, men jeg har nok moro av å se hva det er, likevel jeg», sa Espen, og alt de lo og gjorde narr av ham, så brydde han seg ikke om det, han la avsted opp imot berghammeren, og da han kom oppunder, så han det var et grev som sto og hakket og grov. 
clip144.wav|«God dag!» sa Espen Askeladd; «du står her og hakker og graver så alene?»|«God dag!» sa Espen Askeladd; «du står her og hakker og graver så alene?» 
clip145.wav|«Ja, jeg gjør det», sa grevet; «nå har jeg stått her og hakket og gravet i mange lange tider og ventet på deg, » sa det.|«Ja, jeg gjør det», sa grevet; «nå har jeg stått her og hakket og gravet i mange lange tider og ventet på deg, » sa det. 
clip146.wav|«Ja ja, her er jeg», sa Espen igjen, han tok grevet og slo det av skaftet og gjemte det i skreppa, og så nedover til brødrene sine igjen.|«Ja ja, her er jeg», sa Espen igjen, han tok grevet og slo det av skaftet og gjemte det i skreppa, og så nedover til brødrene sine igjen. 
clip147.wav|«Det var vel noe fælt rart du så oppunder berghammeren?» sa han Per og han Pål.|«Det var vel noe fælt rart du så oppunder berghammeren?» sa han Per og han Pål. 
clip148.wav|«Å det var ikke noe videre, det var bare et grev vi hørte», sa Espen.|«Å det var ikke noe videre, det var bare et grev vi hørte», sa Espen. 
clip149.wav|Så gikk de et godt stykke sammen igjen, til de kom til en bekk; tørste var de nå alle tre, etter det de hadde gått så langt, og så la de seg ned ved bekken og skulle drikke.|Så gikk de et godt stykke sammen igjen, til de kom til en bekk; tørste var de nå alle tre, etter det de hadde gått så langt, og så la de seg ned ved bekken og skulle drikke. 
clip150.wav|«Jeg undres riktig på hvor dette vannet kommer ifra?» sa Espen Askeladd.|«Jeg undres riktig på hvor dette vannet kommer ifra?» sa Espen Askeladd. 
clip151.wav|«Er du ikke galen, så undres du deg visst galen med det aller første. Hvor bekken kommer ifra? Har du aldri sett vannet renne opp av en olle i jorda da?»|«Er du ikke galen, så undres du deg visst galen med det aller første. Hvor bekken kommer ifra? Har du aldri sett vannet renne opp av en olle i jorda da?» 
clip152.wav|«Ja, men jeg har lyst til å se hvor det kommer fra likevel jeg», sa Espen; han avsted oppmed bekken, og alt brødrene ropte på ham og lo av ham, så hjalp det ikke; han gikk sin gang.|«Ja, men jeg har lyst til å se hvor det kommer fra likevel jeg», sa Espen; han avsted oppmed bekken, og alt brødrene ropte på ham og lo av ham, så hjalp det ikke; han gikk sin gang. 
clip153.wav|Da han kom langt oppmed, ble bekken mindre og mindre, og da han kom enda et stykke fram, fikk han se en valnøtt; fra den sildret vannet ut. |Da han kom langt oppmed, ble bekken mindre og mindre, og da han kom enda et stykke fram, fikk han se en valnøtt; fra den sildret vannet ut. 
clip154.wav|«God dag!» sa Espen igjen, «ligger du her og sildrer og renner så alene?»|«God dag!» sa Espen igjen, «ligger du her og sildrer og renner så alene?» 
clip155.wav|«Ja, jeg gjør det», sa valnøtten; «her har jeg ligget og sildret og rent i mange lange tider og ventet på deg.» |«Ja, jeg gjør det», sa valnøtten; «her har jeg ligget og sildret og rent i mange lange tider og ventet på deg.» 
clip156.wav|«Ja ja, her er jeg», sa Espen; han tok en mosedott og dyttet i hullet, så vannet ikke kunne komme ut, og så la han valnøtten i skreppa og satte nedetter til brødrene sine igjen.|«Ja ja, her er jeg», sa Espen; han tok en mosedott og dyttet i hullet, så vannet ikke kunne komme ut, og så la han valnøtten i skreppa og satte nedetter til brødrene sine igjen. 
clip157.wav|«Nå har du vel sett hvor vannet kommer fra? Det ser vel fælt rart ut, kan jeg tenke?» gjønte han Per og han Pål.|«Nå har du vel sett hvor vannet kommer fra? Det ser vel fælt rart ut, kan jeg tenke?» gjønte han Per og han Pål. 
clip158.wav|«Å, det var bare et hull det rant ut av», sa Espen, og så lo de andre to og gjorde narr av ham igjen, men Espen Askeladd brydde seg ikke om det; «jeg hadde nå moro av å se det likevel», sa han.|«Å, det var bare et hull det rant ut av», sa Espen, og så lo de andre to og gjorde narr av ham igjen, men Espen Askeladd brydde seg ikke om det; «jeg hadde nå moro av å se det likevel», sa han. 
clip159.wav|Da de så hadde gått et stykke igjen, kom de til kongsgården; men da alle i kongeriket hadde fått høre at de kunne vinne kongsdatteren og halve riket, hvis de kunne hugge ned den store eika og grave brønn til kongen, så var det kommet så mange som hadde prøvd lykken sin, at eika var dobbelt så stor og tykk nå, som den var fra førstningen; for den vokste ut to fliser for hver de skåret ut med øksen, du kan vel minns.|Da de så hadde gått et stykke igjen, kom de til kongsgården; men da alle i kongeriket hadde fått høre at de kunne vinne kongsdatteren og halve riket, hvis de kunne hugge ned den store eika og grave brønn til kongen, så var det kommet så mange som hadde prøvd lykken sin, at eika var dobbelt så stor og tykk nå, som den var fra førstningen; for den vokste ut to fliser for hver de skåret ut med øksen, du kan vel minns. 
clip160.wav|Derfor hadde kongen nå satt den straff at de som prøvde seg og ikke kunne felle eika, skulle settes ut på en øy og begge ørene skulle klippes av dem.|Derfor hadde kongen nå satt den straff at de som prøvde seg og ikke kunne felle eika, skulle settes ut på en øy og begge ørene skulle klippes av dem. 
clip161.wav|Men de to brødrene lot seg ikke skreppe av det, de trodde nok de skulle få ned eika, og han Per, som eldst var, skulle nå til å prøve seg først.|Men de to brødrene lot seg ikke skreppe av det, de trodde nok de skulle få ned eika, og han Per, som eldst var, skulle nå til å prøve seg først. 
clip162.wav|Men det gikk med han som med alle de andre som hadde hugget på eika; for hver flis han fikk skåret ut, vokste det ut to isteden, og så tok kongens folk ham og klippet av ham begge ørene og satte ham ut på øya.|Men det gikk med han som med alle de andre som hadde hugget på eika; for hver flis han fikk skåret ut, vokste det ut to isteden, og så tok kongens folk ham og klippet av ham begge ørene og satte ham ut på øya. 
clip163.wav|Nå ville han Pål til, men det gikk like ens med ham; da han hadde hugget en to-tre hugg, så de fikk se at eika vokste, tok kongens folk ham og satte ut på øya, og ham klippet de ørene enda snauere av, for de syntes han kunne lært å ta seg vare.|Nå ville han Pål til, men det gikk like ens med ham; da han hadde hugget en to-tre hugg, så de fikk se at eika vokste, tok kongens folk ham og satte ut på øya, og ham klippet de ørene enda snauere av, for de syntes han kunne lært å ta seg vare. 
clip164.wav|Så ville Espen Askeladd til.|Så ville Espen Askeladd til. 
clip165.wav|«Vil du endelig se ut som en merket sau, skal vi gjerne klippe av deg ørene med en gang, så slipper du å bry deg», sa kongen, han var sint på ham for brødrenes skyld.|«Vil du endelig se ut som en merket sau, skal vi gjerne klippe av deg ørene med en gang, så slipper du å bry deg», sa kongen, han var sint på ham for brødrenes skyld. 
clip166.wav|«Jeg hadde nok moro av å prøve først likevel», sa Espen, og det måtte han da få lov til.|«Jeg hadde nok moro av å prøve først likevel», sa Espen, og det måtte han da få lov til. 
clip167.wav|Kunnskapsdepartementet legger med dette fram forslag til en ny universitets- og høyskolelov. Den nye loven skal erstatte lov 1. april 2005 nr. 15 om universiteter og høyskoler|Kunnskapsdepartementet legger med dette fram forslag til en ny universitets- og høyskolelov. Den nye loven skal erstatte lov 1. april 2005 nr. 15 om universiteter og høyskoler 
clip168.wav|Universiteter og høyskoler er store og viktige samfunnsinstitusjoner, som skal bidra med kunnskap til å løse vår tids store samfunnsutfordringer og verdiskapning.|Universiteter og høyskoler er store og viktige samfunnsinstitusjoner, som skal bidra med kunnskap til å løse vår tids store samfunnsutfordringer og verdiskapning. 
clip169.wav|Institusjonene skal være arenaer for fri meningsutveksling og dannelse av ny innsikt som kan bringe samfunnet videre.|Institusjonene skal være arenaer for fri meningsutveksling og dannelse av ny innsikt som kan bringe samfunnet videre. 
clip170.wav|Universitetene og høyskolene er avhengige av høy tillit i samfunnet, og er viktige institusjoner for å ivareta og utvikle et godt samfunn.|Universitetene og høyskolene er avhengige av høy tillit i samfunnet, og er viktige institusjoner for å ivareta og utvikle et godt samfunn. 
clip171.wav|For å lykkes med samfunnsoppdraget må universiteter og høyskoler ha stor grad av selvstyre, faglig frihet og selvstendig ansvar.|For å lykkes med samfunnsoppdraget må universiteter og høyskoler ha stor grad av selvstyre, faglig frihet og selvstendig ansvar. 
clip172.wav|Departementets styring av sektoren må ta hensyn til dette.|Departementets styring av sektoren må ta hensyn til dette. 
clip173.wav|Alle universiteter og høyskoler i Norge er regulert av universitets- og høyskoleloven.|Alle universiteter og høyskoler i Norge er regulert av universitets- og høyskoleloven. 
clip174.wav|Siden 2005 har universitets- og høyskoleloven blitt revidert en rekke ganger, men det har bare blitt gjort endringer i avgrensede deler av loven.|Siden 2005 har universitets- og høyskoleloven blitt revidert en rekke ganger, men det har bare blitt gjort endringer i avgrensede deler av loven. 
clip175.wav|Den 22. juni 2018 ble universitets- og høyskolelovutvalget oppnevnt for å gjøre en helhetlig gjennomgang av loven og foreslå en ny lov.|Den 22. juni 2018 ble universitets- og høyskolelovutvalget oppnevnt for å gjøre en helhetlig gjennomgang av loven og foreslå en ny lov. 
clip176.wav|Departementet foreslår en ny lov om universiteter og høyskoler som skal erstatte dagens lov om universiteter og høyskoler.|Departementet foreslår en ny lov om universiteter og høyskoler som skal erstatte dagens lov om universiteter og høyskoler. 
clip177.wav|Lovforslaget er ett av flere virkemidler i oppfølgingen av særlige utfordringer i universitets- og høyskolesektoren, som for eksempel utstrakt bruk av midlertidige ansettelser og vedlikehold og utvikling av norsk som fagspråk.|Lovforslaget er ett av flere virkemidler i oppfølgingen av særlige utfordringer i universitets- og høyskolesektoren, som for eksempel utstrakt bruk av midlertidige ansettelser og vedlikehold og utvikling av norsk som fagspråk. 
clip178.wav|Departementets lovforslag har som utgangspunkt at universiteter og høyskoler skal ha stor grad av selvstyre og akademisk frihet.|Departementets lovforslag har som utgangspunkt at universiteter og høyskoler skal ha stor grad av selvstyre og akademisk frihet. 
clip179.wav|Loven skal gi overordnede rammer som gir universitetene og høyskolene et tilstrekkelig handlingsrom til å utøve akademisk frihet og finne hensiktsmessige løsninger på den enkelte institusjon.|Loven skal gi overordnede rammer som gir universitetene og høyskolene et tilstrekkelig handlingsrom til å utøve akademisk frihet og finne hensiktsmessige løsninger på den enkelte institusjon. 
clip180.wav|Å gi handlingsrom og ansvar for institusjonene, legger til rette for mindre byråkrati og en ressurseffektiv forvaltning.|Å gi handlingsrom og ansvar for institusjonene, legger til rette for mindre byråkrati og en ressurseffektiv forvaltning. 
clip181.wav|Salamandere har som regel en langstrakt, slank bygning.|Salamandere har som regel en langstrakt, slank bygning. 
clip182.wav|Flere av dem har stor bevegelsesmulighet og kan nærmest bøye seg som slanger.|Flere av dem har stor bevegelsesmulighet og kan nærmest bøye seg som slanger. 
clip183.wav|Noen har et slikt utseende at hodet nesten går i ett med resten av kroppen.|Noen har et slikt utseende at hodet nesten går i ett med resten av kroppen. 
clip184.wav|Noen har veldig små ben, og noen få salamandere mangler bakben og har bare forben. Noen er så å si blinde, og lever på steder med lite lys.|Noen har veldig små ben, og noen få salamandere mangler bakben og har bare forben. Noen er så å si blinde, og lever på steder med lite lys. 
clip185.wav|Visse arter, som familien Plethodontidae, er landlevende og unngår vann. Enkelte lever i vannet hele livet og beholder gjellene (som regel ved siden av lunger).|Visse arter, som familien Plethodontidae, er landlevende og unngår vann. Enkelte lever i vannet hele livet og beholder gjellene (som regel ved siden av lunger). 
clip186.wav| Hjernen er kontrollsenteret i sentralnervesystemet hos dyr.|Hjernen er kontrollsenteret i sentralnervesystemet hos dyr. 
clip187.wav|Blant annet mangler de helt baklemmer, og de små og degenererte tennene som er relativt få, er til dels erstattet av et forhornet nebb.|Blant annet mangler de helt baklemmer, og de små og degenererte tennene som er relativt få, er til dels erstattet av et forhornet nebb. 
clip188.wav|Mens dens nåværende posisjon som underorden i ordenen caudata er trolig korrekt.|Mens dens nåværende posisjon som underorden i ordenen caudata er trolig korrekt. 
clip189.wav|Flere salamandere har en lang tunge som de kan bevege hurtig og fange insekter med. Den har muskler som gjør at den kan strekke seg ut og mekanisk trekkes raskt tilbake.|Flere salamandere har en lang tunge som de kan bevege hurtig og fange insekter med. Den har muskler som gjør at den kan strekke seg ut og mekanisk trekkes raskt tilbake. 
clip190.wav|Klimaendringer er forandringer i den statistiske fordelingen av værmønstre når denne forandringen varer i en lengre periode, det vil si fra noen tiår til millioner av år.|Klimaendringer er forandringer i den statistiske fordelingen av værmønstre når denne forandringen varer i en lengre periode, det vil si fra noen tiår til millioner av år. 
clip191.wav|Endringene kan henvise til forandringer i gjennomsnittlige værforhold, eller en tidsvariasjon av vær rundt langsiktige gjennomsnittsforhold, for eksempel flere eller færre ekstremværhendelser.|Endringene kan henvise til forandringer i gjennomsnittlige værforhold, eller en tidsvariasjon av vær rundt langsiktige gjennomsnittsforhold, for eksempel flere eller færre ekstremværhendelser. 
clip192.wav|Klimaendringene er forårsaket av faktorer som biotiske prosesser, variasjoner i solinnstråling mot jorden, platetektonikk, og vulkanutbrudd.|Klimaendringene er forårsaket av faktorer som biotiske prosesser, variasjoner i solinnstråling mot jorden, platetektonikk, og vulkanutbrudd. 
clip193.wav|Menneskelige aktiviteter har også blitt identifisert som viktige årsaker til det siste århundrets klimaendringer, ofte referert til som global oppvarming.|Menneskelige aktiviteter har også blitt identifisert som viktige årsaker til det siste århundrets klimaendringer, ofte referert til som global oppvarming. 
clip194.wav|Dette har sin årsak i utslipp av klimagasser som karbondioksid fra forbrenning av fossilt brensel.|Dette har sin årsak i utslipp av klimagasser som karbondioksid fra forbrenning av fossilt brensel. 
clip195.wav|Vitenskapelige undersøkelser har blitt gjort for å forstå fortiden og fremtidens klima ved hjelp av observasjoner og teoretiske modeller.|Vitenskapelige undersøkelser har blitt gjort for å forstå fortiden og fremtidens klima ved hjelp av observasjoner og teoretiske modeller. 
clip196.wav|Klimamålinger strekker seg langt tilbake i jordens fortid, og har blitt bygget opp basert på geologiske bevis fra borehull, temperaturprofiler basert på iskjerneprøver, observasjoner av flora og fauna, glasiale og periglasiale prosesser, isotopanalyser og andre analyser av sedimentlag, og registreringer av fortidens havnivå.|Klimamålinger strekker seg langt tilbake i jordens fortid, og har blitt bygget opp basert på geologiske bevis fra borehull, temperaturprofiler basert på iskjerneprøver, observasjoner av flora og fauna, glasiale og periglasiale prosesser, isotopanalyser og andre analyser av sedimentlag, og registreringer av fortidens havnivå. 
clip197.wav|Nyere data er skaffet tilveie ved instrumentelle målinger.|Nyere data er skaffet tilveie ved instrumentelle målinger. 
clip198.wav|Globale klimamodeller basert på geofysikk, brukes ofte i teoretiske tilnærminger for å sammenligne med fortidens klimadata, og gjøre prognoser for fremtidige endringer.|Globale klimamodeller basert på geofysikk, brukes ofte i teoretiske tilnærminger for å sammenligne med fortidens klimadata, og gjøre prognoser for fremtidige endringer. 
clip199.wav|Dessuten brukes modellene for å finne sammenheng mellom årsaker og virkninger i klimaendringene.|Dessuten brukes modellene for å finne sammenheng mellom årsaker og virkninger i klimaendringene. 
clip200.wav|En økonomi er en enhet av en viss størrelse, hvor det foregår produksjon og/eller konsum, som for eksempel en kommune eller et land.|En økonomi er en enhet av en viss størrelse, hvor det foregår produksjon og/eller konsum, som for eksempel en kommune eller et land. 
clip201.wav|Økonomi handler om størrelsen på og fordelingen av økonomiens ulike goder.|Økonomi handler om størrelsen på og fordelingen av økonomiens ulike goder. 
clip202.wav|Man skiller geografisk mellom global økonomi, nasjonaløkonomi og kommuneøkonomi, og man skiller politisk mellom markedsøkonomi, planøkonomi og deltagerøkonomi.|Man skiller geografisk mellom global økonomi, nasjonaløkonomi og kommuneøkonomi, og man skiller politisk mellom markedsøkonomi, planøkonomi og deltagerøkonomi. 
clip203.wav|I slike sosiale systemer skjer produksjon, handel, fordeling og forbruk av ressurser i et samkvem mellom samfunnets individer, husholdninger, bedrifter, ulike myndigheter, og med utlandet.|I slike sosiale systemer skjer produksjon, handel, fordeling og forbruk av ressurser i et samkvem mellom samfunnets individer, husholdninger, bedrifter, ulike myndigheter, og med utlandet. 
clip204.wav|Som fagdisiplin er økonomi, også kalt samfunnsøkonomi eller sosialøkonomi, læren om hvordan knappe ressurser og verdier fordeles mellom mennesker, husholdninger og bedrifter i et samfunn, samt hvordan de samme aktørene skaper verdier gjennom effektiv bruk av knappe ressurser.|Som fagdisiplin er økonomi, også kalt samfunnsøkonomi eller sosialøkonomi, læren om hvordan knappe ressurser og verdier fordeles mellom mennesker, husholdninger og bedrifter i et samfunn, samt hvordan de samme aktørene skaper verdier gjennom effektiv bruk av knappe ressurser. 
clip205.wav|Samtidig er økonomi en atferdsvitenskap som studerer hvordan mennesker og bedrifter fatter beslutninger om verdiskaping, sparing eller forbruk.|Samtidig er økonomi en atferdsvitenskap som studerer hvordan mennesker og bedrifter fatter beslutninger om verdiskaping, sparing eller forbruk. 
clip206.wav|Direkte fra det etymologiske opphavet brukes videre adjektivet økonomisk for å beskrive at en person, en husholdning eller en bedrift bruker sine ressurser effektivt.|Direkte fra det etymologiske opphavet brukes videre adjektivet økonomisk for å beskrive at en person, en husholdning eller en bedrift bruker sine ressurser effektivt. 
clip207.wav|Økonomisk virksomhet er i realiteten et begrep for produksjonsvirksomhet, det vil si utnyttelse av ressurser, arbeidsinnsats og kunnskap for å skape verdier som dekker behov.|Økonomisk virksomhet er i realiteten et begrep for produksjonsvirksomhet, det vil si utnyttelse av ressurser, arbeidsinnsats og kunnskap for å skape verdier som dekker behov. 
clip208.wav|Ressursbruken kan studeres gjennom verdibegreper som er representert gjennom penger.|Ressursbruken kan studeres gjennom verdibegreper som er representert gjennom penger. 
clip209.wav| Verdiskapingen -- nettoproduksjon i form av overskudd -- eller bruttoproduktet i bedriften -- måles som omsetning, mens det for et helt samfunn måles som bruttonasjonalprodukt (BNP).| Verdiskapingen -- nettoproduksjon i form av overskudd -- eller bruttoproduktet i bedriften -- måles som omsetning, mens det for et helt samfunn måles som bruttonasjonalprodukt (BNP). 
clip210.wav|De fleste dyr har hjernen i hodet, nær hovedsanseapparatet og munnen.|De fleste dyr har hjernen i hodet, nær hovedsanseapparatet og munnen. 
clip211.wav|Mens alle virveldyr har nervesystem med hjerne, har virvelløse dyr enten nervesystem med en sentralisert hjerne eller samlinger av ganglier.|Mens alle virveldyr har nervesystem med hjerne, har virvelløse dyr enten nervesystem med en sentralisert hjerne eller samlinger av ganglier. 
clip212.wav|Hjernen er ekstremt kompleks, menneskehjernen inneholder 10-100 milliarder nerveceller, og hver av dem er koblet til rundt 10 000 andre.|Hjernen er ekstremt kompleks, menneskehjernen inneholder 10-100 milliarder nerveceller, og hver av dem er koblet til rundt 10 000 andre. 
clip213.wav|Dette enorme antallet sammenkoblinger gjør menneskehjernen i stand til å vise intelligens.|Dette enorme antallet sammenkoblinger gjør menneskehjernen i stand til å vise intelligens. 
clip214.wav|Kunstig intelligens (KI), også kalt AI (fra engelsk: artificial intelligence), er en teknikk man bruker for å gi datamaskiner og dataprogrammer en mest mulig intelligent respons.|Kunstig intelligens (KI), også kalt AI (fra engelsk: artificial intelligence), er en teknikk man bruker for å gi datamaskiner og dataprogrammer en mest mulig intelligent respons. 
clip215.wav|Fagfeltet kunstig intelligens er tverrfaglig av natur, og har vokst fram med bidrag fra blant annet informatikk, matematikk, statistikk, psykologi, nevrologi og lingvistikk.|Fagfeltet kunstig intelligens er tverrfaglig av natur, og har vokst fram med bidrag fra blant annet informatikk, matematikk, statistikk, psykologi, nevrologi og lingvistikk. 
clip216.wav|Grenen kunstig intelligens innen informatikk blir definert som studiet og utviklingen av intelligente agenter, der en intelligent agent er et system som observerer sitt miljø og tar avgjørelser for å maksimere sin egen suksess.|Grenen kunstig intelligens innen informatikk blir definert som studiet og utviklingen av intelligente agenter, der en intelligent agent er et system som observerer sitt miljø og tar avgjørelser for å maksimere sin egen suksess. 
clip217.wav|"Andreas Kaplan og Michael Haenlein definerer kunstig intelligens som ""et systems evne til å korrekt tolke eksterne data, å lære av slike data, og å bruke denne kunnskapen til å oppnå spesifikke mål og oppgaver gjennom fleksibel tilpasning"". "|"Andreas Kaplan og Michael Haenlein definerer kunstig intelligens som ""et systems evne til å korrekt tolke eksterne data, å lære av slike data, og å bruke denne kunnskapen til å oppnå spesifikke mål og oppgaver gjennom fleksibel tilpasning"". "
clip218.wav|Religion er en fellesbetegnelse for ulike trosforestillinger og kulturelle handlinger som forutsetter at virkeligheten omfatter mer enn den fysiske, målbare verden|Religion er en fellesbetegnelse for ulike trosforestillinger og kulturelle handlinger som forutsetter at virkeligheten omfatter mer enn den fysiske, målbare verden 
clip219.wav|Religioner presenterer gjerne svar på menneskers eksistensielle undring, og innebærer som oftest en overbevisning om at det finnes én eller flere guder (monoteistiske og polyteistiske religioner) eller andre overnaturlige vesener.|Religioner presenterer gjerne svar på menneskers eksistensielle undring, og innebærer som oftest en overbevisning om at det finnes én eller flere guder (monoteistiske og polyteistiske religioner) eller andre overnaturlige vesener. 
clip220.wav|Dette skiller religion fra livssyn som ikke nødvendigvis innebærer en tro på noe ikke-fysisk.|Dette skiller religion fra livssyn som ikke nødvendigvis innebærer en tro på noe ikke-fysisk. 
clip221.wav|Japan er et land i Øst-Asia. Det er en øystat som ligger øst for Japanhavet og vest for Stillehavet og har sjøgrenser til Russland nord ved La Pérouse-stredet, Sør-Korea vest ved Koreastredet og Kina i sør og sørvest ved Øst-Kina-havet.|Japan er et land i Øst-Asia. Det er en øystat som ligger øst for Japanhavet og vest for Stillehavet og har sjøgrenser til Russland nord ved La Pérouse-stredet, Sør-Korea vest ved Koreastredet og Kina i sør og sørvest ved Øst-Kina-havet. 
clip222.wav|Japan er en kjede av øyer bestående av hovedøyene, fra nord til sør: Hokkaido, Honshu, Shikoku, Kyushu, samt en 6 848 mindre øyer.|Japan er en kjede av øyer bestående av hovedøyene, fra nord til sør: Hokkaido, Honshu, Shikoku, Kyushu, samt en 6 848 mindre øyer. 
clip223.wav|Japans hovedstad og største by er Tokyo som ligger ved sørøstkysten av Japan i Kantōregionen på øyen Honshu.|Japans hovedstad og største by er Tokyo som ligger ved sørøstkysten av Japan i Kantōregionen på øyen Honshu. 
clip224.wav|Etter at Japan tapte andre verdenskrig var Japan okkupert av USA fra 1945 til 1952, og under amerikansk lederskap laget Japan en ny grunnlov i 1947 for å demokratisere landet.|Etter at Japan tapte andre verdenskrig var Japan okkupert av USA fra 1945 til 1952, og under amerikansk lederskap laget Japan en ny grunnlov i 1947 for å demokratisere landet. 
clip225.wav|Etter okkupasjonen opplevde Japan en stor økonomisk vekst, som gjorde Japan en av de økonomiske supermaktene.|Etter okkupasjonen opplevde Japan en stor økonomisk vekst, som gjorde Japan en av de økonomiske supermaktene. 
clip226.wav|Lionel Messi er en argentinsk fotballspiller som spiller for den amerikanske klubben Inter Miami.|Lionel Messi er en argentinsk fotballspiller som spiller for den amerikanske klubben Inter Miami. 
clip227.wav|Han er også kaptein for Argentinas herrelandslag i fotball. Messi regnes av mange som en av tidenes beste fotballspillere.|Han er også kaptein for Argentinas herrelandslag i fotball. Messi regnes av mange som en av tidenes beste fotballspillere. 
clip228.wav|Han har vunnet Gullstøvelen seks ganger og Gullballen åtte ganger, mer enn noen andre fotballspillere.|Han har vunnet Gullstøvelen seks ganger og Gullballen åtte ganger, mer enn noen andre fotballspillere. 
clip229.wav|Messi ble født den 24. juni 1987 i Rosario i Argentina. Faren hans, jobbet på en stålfabrikk og moren hans Celia Maria var en deltids renholder. |Messi ble født den 24. juni 1987 i Rosario i Argentina. Faren hans, jobbet på en stålfabrikk og moren hans Celia Maria var en deltids renholder. 
clip230.wav|I tillegg hadde Messi to brødre og én søster. Faren hans var også fotballtrener for lokallaget Grandoli og introduserte Messi til fotball i en tidlig alder. |I tillegg hadde Messi to brødre og én søster. Faren hans var også fotballtrener for lokallaget Grandoli og introduserte Messi til fotball i en tidlig alder. 
clip231.wav|Som elleveåring ble Messi diagnostisert med veksthormonmangel, slik at han stoppet å vokse og måtte gå på hormonbehandling i tre år.|Som elleveåring ble Messi diagnostisert med veksthormonmangel, slik at han stoppet å vokse og måtte gå på hormonbehandling i tre år. 
clip232.wav|Behandlingen skjedde i en form av en sprøyte og måtte tas daglig.|Behandlingen skjedde i en form av en sprøyte og måtte tas daglig. 
clip233.wav|Siden hjemlandet hans opplevde en økonomisk krise hadde det ikke råd til å dekke behandlingen og familien hans måtte betale cirka 6 000 kroner i måneden for å kunne fortsette med den.|Siden hjemlandet hans opplevde en økonomisk krise hadde det ikke råd til å dekke behandlingen og familien hans måtte betale cirka 6 000 kroner i måneden for å kunne fortsette med den. 
clip234.wav|Messi var bekymret over høyden sin og lurte på om det ville påvirke fotballkarrieren hans negativt.|Messi var bekymret over høyden sin og lurte på om det ville påvirke fotballkarrieren hans negativt. 
clip235.wav|Han ønsket siden barndommen sin å bli en profesjonell fotballspiller. 13 år gammel flyttet han til Spania for å bli fotballspiller.|Han ønsket siden barndommen sin å bli en profesjonell fotballspiller. 13 år gammel flyttet han til Spania for å bli fotballspiller. 
clip236.wav|Med fattigdom menes først og fremst en mangel på livsviktige ressurser, som for eksempel ernæring, husrom eller klær. Ofte brukes begrepet også som betegnelse på en mangel generelt.|Med fattigdom menes først og fremst en mangel på livsviktige ressurser, som for eksempel ernæring, husrom eller klær. Ofte brukes begrepet også som betegnelse på en mangel generelt. 
clip237.wav|Mangelen av muligheter til å leve et liv som tilsvarer bestemte minimale krav. Disse kravene kan være svært forskjellige avhengig av tid og sted.|Mangelen av muligheter til å leve et liv som tilsvarer bestemte minimale krav. Disse kravene kan være svært forskjellige avhengig av tid og sted. 
clip238.wav|Begrepet fattigdom brukes ikke kun om enkeltpersoner eller grupper av mennesker, men også stater, land og administrative enheter.|Begrepet fattigdom brukes ikke kun om enkeltpersoner eller grupper av mennesker, men også stater, land og administrative enheter. 
clip239.wav|Vi kan også se fattigdom i flere sammenhenger. Vi har den økonomiske fattigdommen; med det menes det å lide materiell nød, altså med mangel på penger, materielle goder og ressurser.|Vi kan også se fattigdom i flere sammenhenger. Vi har den økonomiske fattigdommen; med det menes det å lide materiell nød, altså med mangel på penger, materielle goder og ressurser. 
clip240.wav|Universet er alt som eksisterer av tid og rom, og innholdet i rommet, herunder materie og stråling. Det inkluderer planeter, måner, dvergplaneter, stjerner, galakser, intergalaktisk rom, og all materie og energi.|Universet er alt som eksisterer av tid og rom, og innholdet i rommet, herunder materie og stråling. Det inkluderer planeter, måner, dvergplaneter, stjerner, galakser, intergalaktisk rom, og all materie og energi. 
clip241.wav|Det observerbare universet er cirka 93 milliarder lysår i diameter. Det er ukjent hvor stort universet faktisk er, men det finnes flere teorier i forbindelse med hvordan det har utviklet seg.|Det observerbare universet er cirka 93 milliarder lysår i diameter. Det er ukjent hvor stort universet faktisk er, men det finnes flere teorier i forbindelse med hvordan det har utviklet seg. 
clip242.wav|De tidligste modellene av universet ble utviklet av antikkens grekere og indiske filosofer.|De tidligste modellene av universet ble utviklet av antikkens grekere og indiske filosofer. 
clip243.wav|Disse modellene var geosentriske, det vil si at de plasserte Jorden i senteret av universet.|Disse modellene var geosentriske, det vil si at de plasserte Jorden i senteret av universet. 
clip244.wav|Mens forståelsen av universet ble bedre, førte mer presise observasjoner til at Nikolaus Kopernikus utviklet den heliosentriske modellen, hvor Solen er i senteret av solsystemet.|Mens forståelsen av universet ble bedre, førte mer presise observasjoner til at Nikolaus Kopernikus utviklet den heliosentriske modellen, hvor Solen er i senteret av solsystemet. 
clip245.wav|Isaac Newton bygget på Kopernikus' arbeid, samt observasjonene til Tycho Brahe og Johannes Keplers arbeid, for å utvikle Newtons gravitasjonslov, som ga en forståelse av hvordan tyngdekraften fungerer i universet, og dens betydning.|Isaac Newton bygget på Kopernikus' arbeid, samt observasjonene til Tycho Brahe og Johannes Keplers arbeid, for å utvikle Newtons gravitasjonslov, som ga en forståelse av hvordan tyngdekraften fungerer i universet, og dens betydning. 
clip246.wav|Videre observasjoner førte til at man fikk vite at solsystemet befinner seg i Melkeveien, og er et av mange solsystemer og galakser.|Videre observasjoner førte til at man fikk vite at solsystemet befinner seg i Melkeveien, og er et av mange solsystemer og galakser. 
clip247.wav|En IP-adresse, (av engelsk: Internet Protocol address) er en unik identifikator eller adresse som tildeles en enhet, for eksempel en PC eller en skriver i et TCP/IP-basert datanettverk.|En IP-adresse, (av engelsk: Internet Protocol address) er en unik identifikator eller adresse som tildeles en enhet, for eksempel en PC eller en skriver i et TCP/IP-basert datanettverk. 
clip248.wav|To enheter i et nettverk kan ikke ha samme adresse. Det mest kjente datanettverket som bruker IP-adresser er Internett.|To enheter i et nettverk kan ikke ha samme adresse. Det mest kjente datanettverket som bruker IP-adresser er Internett. 
clip249.wav|Nvidia Corporation er en amerikansk produsent av grafikkort for datamaskiner.|Nvidia Corporation er en amerikansk produsent av grafikkort for datamaskiner. 
clip250.wav|Nvidia lager grafikkprosessoren (engelsk: GPU – Graphics Processing Unit) i skjermkort.|Nvidia lager grafikkprosessoren (engelsk: GPU – Graphics Processing Unit) i skjermkort. 
clip251.wav|Nvidias første suksessbrikke var Riva TNT og har siden gjort suksess med GeForce serien.|Nvidias første suksessbrikke var Riva TNT og har siden gjort suksess med GeForce serien. 
clip252.wav|Selskapet produserer også brikkesett for hovedkort under navnet nForce.|Selskapet produserer også brikkesett for hovedkort under navnet nForce. 
clip253.wav|Siden 2014, har Nvidia ekspandert til å fokusere på marked som videospill, profesjonell visualisering, datasentre og kunstig intelligens.|Siden 2014, har Nvidia ekspandert til å fokusere på marked som videospill, profesjonell visualisering, datasentre og kunstig intelligens. 
clip254.wav|Pokémon-verdenen er befolket av mennesker og pokémoner. Det er flere forskjellige pokémon-slag som minner om virkelige dyr.|Pokémon-verdenen er befolket av mennesker og pokémoner. Det er flere forskjellige pokémon-slag som minner om virkelige dyr. 
clip255.wav|Mange mennesker i denne verdenen «eier» forskjellige pokémoner som husdyr eller arbeidspartner, og skapningene blir også brukt i kamper mot andre pokémoner.|Mange mennesker i denne verdenen «eier» forskjellige pokémoner som husdyr eller arbeidspartner, og skapningene blir også brukt i kamper mot andre pokémoner. 
clip256.wav|De fleste trenere oppbevarer sine pokémoner i «pokéballer», som er små, kapsellignende kuler.|De fleste trenere oppbevarer sine pokémoner i «pokéballer», som er små, kapsellignende kuler. 
clip257.wav|Programmering består av å designe, skrive, teste, feilsøke og vedlikeholde kildekoden til et program som skal tolkes av en datamaskin.|Programmering består av å designe, skrive, teste, feilsøke og vedlikeholde kildekoden til et program som skal tolkes av en datamaskin. 
clip258.wav|Personen som foretar seg programmering kalles en programmerer eller utvikler.|Personen som foretar seg programmering kalles en programmerer eller utvikler. 
clip259.wav|Utvikleren skriver kode etter en spesifikk syntaks som inneholder instruksjoner på hvordan programmet skal oppføre seg og hvilke kalkulasjoner det skal gjøre.|Utvikleren skriver kode etter en spesifikk syntaks som inneholder instruksjoner på hvordan programmet skal oppføre seg og hvilke kalkulasjoner det skal gjøre. 
clip260.wav|Blåhval er sannsynligvis det største dyret som noensinne har levd på jorden.|Blåhval er sannsynligvis det største dyret som noensinne har levd på jorden. 
clip261.wav|På noen områder foreslår departementet imidlertid, som i dagens lov, noe mer utførlige regler.|På noen områder foreslår departementet imidlertid, som i dagens lov, noe mer utførlige regler. 
clip262.wav|Dette gjelder særlig der hensynet til studentenes rettssikkerhet og forutsigbarhet gjør det nødvendig med regler som gjelder likt for alle institusjonene.|Dette gjelder særlig der hensynet til studentenes rettssikkerhet og forutsigbarhet gjør det nødvendig med regler som gjelder likt for alle institusjonene. 
clip263.wav|I andre tilfeller er det nødvendig med konkret regulering for å ivareta sentrale nasjonale hensyn, som for eksempel distriktspolitiske hensyn og sikring av like muligheter og tilgang til utdanning i hele landet.|I andre tilfeller er det nødvendig med konkret regulering for å ivareta sentrale nasjonale hensyn, som for eksempel distriktspolitiske hensyn og sikring av like muligheter og tilgang til utdanning i hele landet. 
clip264.wav|Departementet har som et utgangspunkt forsøkt å unngå regler som er rettslig overflødig, for eksempel fordi forholdet allerede er tilstrekkelig regulert i annet regelverk.|Departementet har som et utgangspunkt forsøkt å unngå regler som er rettslig overflødig, for eksempel fordi forholdet allerede er tilstrekkelig regulert i annet regelverk. 
clip265.wav|På noen områder er det likevel beholdt særregler, for eksempel fordi reglene anses som et viktig tiltak mot en særlig utfordring i universitets- og høyskolesektoren. |På noen områder er det likevel beholdt særregler, for eksempel fordi reglene anses som et viktig tiltak mot en særlig utfordring i universitets- og høyskolesektoren. 
clip266.wav|På oppdrag fra Helsedepartementet har Helse Nord startet et omfattende arbeid med omstrukturering.|På oppdrag fra Helsedepartementet har Helse Nord startet et omfattende arbeid med omstrukturering. 
clip267.wav|Resultatet av dette arbeidet vil ha konsekvenser for befolkningen i hele Nord-Norge. Resultatet av dette arbeidet vil ha konsekvenser for befolkningen i hele Nord-Norge. 
clip268.wav|Plassering av sykehus og sykehustilbud er grunnleggende for pasientsikkerhet, stabilitet og beredskap.|Plassering av sykehus og sykehustilbud er grunnleggende for pasientsikkerhet, stabilitet og beredskap. 
clip269.wav|En så omfattende endring av sykehustilbudet i hele Nord-Norge må besluttes i Stortinget, og ikke på foretaksmøte slik det er lagt opp til i dag.|En så omfattende endring av sykehustilbudet i hele Nord-Norge må besluttes i Stortinget, og ikke på foretaksmøte slik det er lagt opp til i dag. 
clip270.wav|Arbeidsgruppe 1, som har hatt som oppgave å se på ny sykehusstruktur, la 14. november 2023 fram sin anbefaling.|Arbeidsgruppe 1, som har hatt som oppgave å se på ny sykehusstruktur, la 14. november 2023 fram sin anbefaling. 
clip271.wav|USA har et areal på 9 526 517 kvadratkilometer. Det gjør USA til verdens tredje største land, etter Russland, og Canada.|USA har et areal på 9 526 517 kvadratkilometer. Det gjør USA til verdens tredje største land, etter Russland, og Canada. 
clip272.wav|USA har rundt 335 millioner innbyggere pr. 2023, noe som også gjør landet til verdens tredje mest folkerike, kun forbigått av Kina og India.|USA har rundt 335 millioner innbyggere pr. 2023, noe som også gjør landet til verdens tredje mest folkerike, kun forbigått av Kina og India. 
clip273.wav|Føderasjonen bestod opprinnelig av tretten kolonier som løsrev seg fra Storbritannia i 1776. I løpet av 1800-tallet ekspanderte USA kraftig mot vest, samtidig som landet tok imot store mengder innvandrere fra hele Europa.|Føderasjonen bestod opprinnelig av tretten kolonier som løsrev seg fra Storbritannia i 1776. I løpet av 1800-tallet ekspanderte USA kraftig mot vest, samtidig som landet tok imot store mengder innvandrere fra hele Europa. 
clip274.wav|Innvandrerne – som siden 1900-tallet har kommet fra hele verden – har gjort det amerikanske samfunnet demografisk svært heterogent, og landet består av svært mange forskjellige etniske og religiøse grupper.|Innvandrerne – som siden 1900-tallet har kommet fra hele verden – har gjort det amerikanske samfunnet demografisk svært heterogent, og landet består av svært mange forskjellige etniske og religiøse grupper. 
clip275.wav|Etter andre verdenskrig ble USA en av verdens to «supermakter» ved siden av Sovjetunionen, samtidig som amerikansk film, musikk og annen kultur fikk stor påvirkning på hele verden.|Etter andre verdenskrig ble USA en av verdens to «supermakter» ved siden av Sovjetunionen, samtidig som amerikansk film, musikk og annen kultur fikk stor påvirkning på hele verden. 
clip276.wav|Etter den kalde krigens slutt i 1989 har USA vært verdens klart ledende økonomiske og militære makt.|Etter den kalde krigens slutt i 1989 har USA vært verdens klart ledende økonomiske og militære makt. 
clip277.wav|Landet huser mange av verdens mest kjente universiteter og forskningsinstitusjoner, og er verdensledende innenfor høyteknologi.|Landet huser mange av verdens mest kjente universiteter og forskningsinstitusjoner, og er verdensledende innenfor høyteknologi. 
clip278.wav|Som forbundsrepublikk er den politiske makten i USA delt mellom de føderale styresmaktene i Washington og delstatene.|Som forbundsrepublikk er den politiske makten i USA delt mellom de føderale styresmaktene i Washington og delstatene. 
clip279.wav|På føderalt nivå er makten delt mellom presidenten (siden 2021 Joe Biden), en kongress med to kamre og høyesterett.|På føderalt nivå er makten delt mellom presidenten (siden 2021 Joe Biden), en kongress med to kamre og høyesterett. 
clip280.wav|En tilsvarende struktur følges i store trekk i de fleste delstatene, med en politisk valgt guvernør, en delstatskongress og en delstatshøyesterett.|En tilsvarende struktur følges i store trekk i de fleste delstatene, med en politisk valgt guvernør, en delstatskongress og en delstatshøyesterett. 
clip281.wav|De to store og dominerende partiene i USA kalles republikanerne og demokratene.|De to store og dominerende partiene i USA kalles republikanerne og demokratene. 
clip282.wav|Google er et amerikansk teknologiselskap som driver flere internettjenester, hovedsakelig innen nettsøk, reklame, skylagring og programvare.|Google er et amerikansk teknologiselskap som driver flere internettjenester, hovedsakelig innen nettsøk, reklame, skylagring og programvare. 
clip283.wav|De fleste inntektene til selskapet kommer fra AdWords, en reklametjeneste som plasserer reklame rundt i Googles søkeresultater.|De fleste inntektene til selskapet kommer fra AdWords, en reklametjeneste som plasserer reklame rundt i Googles søkeresultater. 
clip284.wav|Googles raske vekst siden det ble grunnlagt har ført til at Google driver en rekke internettjenester, og har kjøpt opp flere andre selskap.|Googles raske vekst siden det ble grunnlagt har ført til at Google driver en rekke internettjenester, og har kjøpt opp flere andre selskap. 
clip285.wav|Selskapet leder også utviklingen av Android, et mobilt operativsystem, i tillegg til utviklingen av Chrome OS, et operativsystem som består hovedsakelig av en nettleser, og er designet for en type datamaskiner kalt Chromebooks.|Selskapet leder også utviklingen av Android, et mobilt operativsystem, i tillegg til utviklingen av Chrome OS, et operativsystem som består hovedsakelig av en nettleser, og er designet for en type datamaskiner kalt Chromebooks. 
clip286.wav|Mindretallet mener videre at det har vært uhyre vanskelig å gjennomføre en utredning over en så kort tidsperiode, og viser til at dette handler om et tilbud som skal dekke 113 000 kvadratkilometer og 80 kommuner.|Mindretallet mener videre at det har vært uhyre vanskelig å gjennomføre en utredning over en så kort tidsperiode, og viser til at dette handler om et tilbud som skal dekke 113 000 kvadratkilometer og 80 kommuner. 
clip287.wav|En gjentagende bekymring er bemanningssituasjonen i Helse Nord og muligheten til å rekruttere faglig kompetente ansatte. Situasjonen er allerede prekær, og det rapporteres om svært harde arbeidsdager for helsepersonell.|En gjentagende bekymring er bemanningssituasjonen i Helse Nord og muligheten til å rekruttere faglig kompetente ansatte. Situasjonen er allerede prekær, og det rapporteres om svært harde arbeidsdager for helsepersonell. 
clip288.wav|Forslagsstillerne mener at det er gjort, og gjøres, for lite for å sikre bedre arbeidsforhold i dag, og deler bekymringen til mindretallet i arbeidsgruppa for at nedskalering og nedbemanning enkelte steder vil føre til en forverret bemanningssituasjon.|Forslagsstillerne mener at det er gjort, og gjøres, for lite for å sikre bedre arbeidsforhold i dag, og deler bekymringen til mindretallet i arbeidsgruppa for at nedskalering og nedbemanning enkelte steder vil føre til en forverret bemanningssituasjon. 
clip289.wav|Man risikerer å skape mindre attraktive arbeidsplasser for nøkkelpersonell både på sykehus som gjøres om til distriktsmedisinske sentre (DMS), og på sykehus som mister kirurgisk akuttberedskap.|Man risikerer å skape mindre attraktive arbeidsplasser for nøkkelpersonell både på sykehus som gjøres om til distriktsmedisinske sentre (DMS), og på sykehus som mister kirurgisk akuttberedskap. 
clip290.wav|Samtidig er det ikke gitt at de som allerede var tilknyttet en tjeneste, ønsker å flytte for å knytte seg til et annet tilbud.|Samtidig er det ikke gitt at de som allerede var tilknyttet en tjeneste, ønsker å flytte for å knytte seg til et annet tilbud. 
clip291.wav|Samhandlingsreformen har ført til at stadig flere oppgaver forventes løst i kommunene, uten at dette har vært fulgt opp med nødvendig finansiering. Det har ført til et sterkt press på kommunenes helse- og omsorgsbudsjetter og også ført til et økt behov for prehospitale tjenester.|Samhandlingsreformen har ført til at stadig flere oppgaver forventes løst i kommunene, uten at dette har vært fulgt opp med nødvendig finansiering. Det har ført til et sterkt press på kommunenes helse- og omsorgsbudsjetter og også ført til et økt behov for prehospitale tjenester. 
clip292.wav|Forslagsstillerne er bekymret for at ytterligere innstramminger og sentralisering i sykehusene vil ha en stor påvirkning på kommunene, og mener at kommunene i langt større grad burde vært involvert i prosessen knyttet til ny sykehusstruktur.|Forslagsstillerne er bekymret for at ytterligere innstramminger og sentralisering i sykehusene vil ha en stor påvirkning på kommunene, og mener at kommunene i langt større grad burde vært involvert i prosessen knyttet til ny sykehusstruktur. 
clip293.wav|Mens mer konvensjonelle søkemotorer på den tiden rangerte resultatene sine etter hvor mange ganger et søkeord dukket opp på en nettside, arbeidet Page og Brin med det de mente var et bedre system, som analyserte forholdene mellom nettsidene.|Mens mer konvensjonelle søkemotorer på den tiden rangerte resultatene sine etter hvor mange ganger et søkeord dukket opp på en nettside, arbeidet Page og Brin med det de mente var et bedre system, som analyserte forholdene mellom nettsidene. 
clip294.wav|Både forsvarskommisjonen og totalberedskapskommisjonen peker på en desentralisert sykehusstruktur som en vesentlig del av landets felles beredskap og sikkerhet.|Både forsvarskommisjonen og totalberedskapskommisjonen peker på en desentralisert sykehusstruktur som en vesentlig del av landets felles beredskap og sikkerhet. 
clip295.wav|Vær- og klimaendringer og påvirkningen på bosettingsmønstre er også åpenbare hensyn som bør inkluderes i en vurdering av plassering av sykehus.|Vær- og klimaendringer og påvirkningen på bosettingsmønstre er også åpenbare hensyn som bør inkluderes i en vurdering av plassering av sykehus. 
clip296.wav|I en region som er preget av store avstander, dårlig vær, mørketid og avhengighet av broer, ferjer og luftambulansetilbud, er det enda klarere at de samfunnsmessige konsekvensene må inkluderes.|I en region som er preget av store avstander, dårlig vær, mørketid og avhengighet av broer, ferjer og luftambulansetilbud, er det enda klarere at de samfunnsmessige konsekvensene må inkluderes. 
clip297.wav|Situasjonen i Helse Nord har i lang tid vært prekær, og det er behov for å sikre tiltak for hele regionen, knyttet til både bemanning, pasienttilbud og beredskap.|Situasjonen i Helse Nord har i lang tid vært prekær, og det er behov for å sikre tiltak for hele regionen, knyttet til både bemanning, pasienttilbud og beredskap. 
clip298.wav|Med tid, klokskap og forankring kunne dette lagt til rette for en god prosess for hele Nord-Norge der premisset om likeverdige helsetjenester la til grunn.|Med tid, klokskap og forankring kunne dette lagt til rette for en god prosess for hele Nord-Norge der premisset om likeverdige helsetjenester la til grunn. 
clip299.wav|Nå er det i stedet lagt opp til en rask, udemokratisk prosess som har store konsekvenser for en hel landsdel.|Nå er det i stedet lagt opp til en rask, udemokratisk prosess som har store konsekvenser for en hel landsdel. 
clip300.wav|Stortinget ber regjeringen sikre en sykehusstruktur i Nord-Norge hvor behovet for beredskap og helhetlig samfunnsutvikling ivaretas.|Stortinget ber regjeringen sikre en sykehusstruktur i Nord-Norge hvor behovet for beredskap og helhetlig samfunnsutvikling ivaretas. 
